…
```r
# using the janitor package - let's clean the columns name
data <- data %>% clean_names()
data
```

```
## # A tibble: 10,000 × 14
##      udi product_id type  air_temperature_k process_temperature_k
##    <dbl> <chr>      <chr>             <dbl>                 <dbl>
##  1     1 M14860     M                  298.                  309.
##  2     2 L47181     L                  298.                  309.
##  3     3 L47182     L                  298.                  308.
##  4     4 L47183     L                  298.                  309.
##  5     5 L47184     L                  298.                  309.
##  6     6 M14865     M                  298.                  309.
##  7     7 L47186     L                  298.                  309.
##  8     8 L47187     L                  298.                  309.
##  9     9 M14868     M                  298.                  309.
## 10    10 M14869     M                  298.                  309 
## # ℹ 9,990 more rows
## # ℹ 9 more variables: rotational_speed_rpm <dbl>, torque_nm <dbl>,
## #   tool_wear_min <dbl>, machine_failure <dbl>, twf <dbl>, hdf <dbl>,
## #   pwf <dbl>, osf <dbl>, rnf <dbl>
```
…
