…
(a) Create a plot like the one below:

```r
library(lubridate)
tpa_clean <- weather_tpa %>% 
  unite("doy", year, month, day, sep = "-") %>% 
  mutate(doy = ymd(doy), 
         max_temp = as.double(max_temp), 
         min_temp = as.double(min_temp), 
         precipitation = as.double(precipitation))
tpa_clean
```

```
## # A tibble: 365 × 5
##    doy        precipitation max_temp min_temp ave_temp
##    <date>             <dbl>    <dbl>    <dbl>    <dbl>
##  1 2022-01-01       0             82       67     74.5
##  2 2022-01-02       0             82       71     76.5
##  3 2022-01-03       0.02          75       55     65  
##  4 2022-01-04       0             76       50     63  
##  5 2022-01-05       0             75       59     67  
##  6 2022-01-06       0.00001       74       56     65  
##  7 2022-01-07       0.00001       81       63     72  
##  8 2022-01-08       0             81       58     69.5
##  9 2022-01-09       0             84       65     74.5
## 10 2022-01-10       0             81       64     72.5
## # ℹ 355 more rows
```
…
